{ "compressionlevel":-1,
 "editorsettings":
    {
     "export":
        {
         "format":"json",
         "target":"map.json"
        }
    },
 "height":1000,
 "infinite":true,
 "layers":[
        {
         "chunks":[
                {
                 "data":[0, 0, 0, 0, 0, 0, 0, 0, 0, 0, 0, 0, 0, 0, 0, 0, 0, 0, 0, 0, 0, 0, 0, 0, 0, 0, 0, 0, 0, 0, 0, 0, 0, 0, 0, 0, 0, 0, 0, 0, 0, 0, 0, 0, 0, 0, 0, 0, 0, 0, 0, 0, 0, 0, 0, 0, 0, 0, 0, 0, 0, 0, 0, 0, 0, 0, 0, 0, 0, 0, 0, 0, 0, 0, 0, 0, 0, 0, 0, 0, 0, 0, 0, 0, 0, 0, 0, 0, 0, 0, 0, 0, 0, 0, 0, 0, 0, 0, 0, 0, 0, 0, 0, 0, 0, 0, 0, 0, 0, 0, 0, 0, 0, 0, 0, 0, 0, 0, 0, 0, 0, 0, 0, 0, 0, 0, 0, 0, 0, 0, 0, 0, 0, 0, 0, 0, 0, 0, 0, 0, 0, 0, 0, 0, 0, 0, 0, 0, 0, 0, 0, 0, 0, 0, 0, 0, 0, 0, 0, 0, 0, 0, 0, 0, 0, 0, 0, 0, 0, 0, 0, 0, 0, 0, 0, 0, 0, 0, 0, 0, 0, 0, 0, 0, 0, 0, 0, 0, 0, 0, 0, 0, 0, 0, 0, 0, 0, 0, 0, 0, 0, 0, 0, 0, 0, 0, 0, 0, 0, 0, 0, 0, 0, 0, 0, 0, 0, 0, 0, 0, 0, 0, 0, 0, 0, 0, 0, 0, 0, 0, 0, 0, 0, 0, 0, 0, 0, 0, 0, 0, 0, 0, 0, 0, 0, 0, 0, 106, 106, 106, 106, 106, 106, 106, 0, 0],
                 "height":16,
                 "width":16,
                 "x":0,
                 "y":-16
                }, 
                {
                 "data":[0, 0, 0, 0, 0, 0, 0, 0, 0, 0, 0, 0, 0, 0, 0, 0, 0, 0, 0, 0, 0, 0, 0, 0, 0, 0, 0, 0, 0, 0, 0, 0, 0, 0, 0, 0, 0, 0, 0, 0, 0, 0, 0, 0, 0, 0, 0, 0, 0, 0, 0, 0, 0, 0, 0, 0, 0, 0, 0, 0, 0, 0, 0, 0, 0, 0, 0, 0, 0, 0, 0, 0, 0, 0, 0, 0, 0, 0, 0, 0, 0, 0, 0, 0, 0, 0, 0, 0, 0, 0, 0, 0, 0, 0, 0, 0, 0, 0, 0, 0, 0, 0, 0, 0, 0, 0, 0, 0, 0, 0, 0, 0, 0, 0, 0, 0, 0, 0, 0, 0, 0, 0, 0, 0, 0, 0, 0, 0, 0, 0, 0, 0, 0, 0, 0, 0, 0, 0, 0, 0, 0, 0, 0, 0, 0, 0, 0, 0, 0, 0, 0, 0, 0, 0, 0, 0, 0, 0, 0, 0, 0, 0, 0, 0, 0, 0, 0, 0, 0, 0, 0, 0, 0, 0, 0, 0, 0, 0, 0, 0, 0, 0, 0, 0, 0, 0, 0, 0, 0, 0, 0, 0, 0, 0, 0, 0, 0, 0, 0, 0, 0, 0, 0, 0, 0, 0, 0, 0, 0, 0, 0, 0, 0, 0, 0, 0, 0, 0, 0, 0, 0, 0, 0, 0, 0, 0, 0, 0, 0, 0, 0, 0, 0, 0, 0, 0, 0, 0, 0, 0, 0, 0, 0, 0, 0, 106, 106, 106, 106, 106, 106, 106, 106, 106, 0, 0],
                 "height":16,
                 "width":16,
                 "x":80,
                 "y":-16
                }, 
                {
                 "data":[0, 0, 0, 0, 106, 106, 106, 106, 0, 0, 0, 0, 0, 0, 0, 0, 0, 0, 0, 106, 106, 153, 0, 0, 0, 0, 0, 0, 0, 0, 0, 0, 0, 0, 106, 106, 0, 0, 0, 0, 14, 0, 0, 0, 0, 0, 0, 0, 0, 0, 153, 0, 0, 0, 0, 0, 0, 0, 0, 0, 0, 0, 0, 0, 0, 0, 153, 0, 0, 0, 0, 0, 0, 0, 0, 0, 0, 0, 0, 0, 0, 153, 153, 0, 0, 0, 0, 0, 0, 0, 0, 0, 0, 0, 0, 0, 0, 153, 153, 153, 153, 153, 153, 153, 153, 153, 153, 0, 0, 0, 0, 0, 0, 0, 0, 0, 0, 0, 0, 0, 0, 0, 0, 0, 0, 0, 0, 0, 0, 0, 0, 0, 0, 0, 0, 0, 0, 14, 0, 0, 0, 0, 0, 0, 0, 0, 0, 0, 0, 110, 0, 0, 0, 0, 0, 0, 73, 65, 0, 0, 0, 0, 0, 0, 0, 64, 0, 153, 153, 153, 153, 153, 153, 153, 153, 153, 0, 0, 0, 0, 0, 64, 0, 0, 0, 0, 0, 0, 0, 0, 0, 0, 0, 0, 0, 0, 0, 110, 0, 0, 0, 0, 0, 0, 0, 0, 0, 0, 0, 0, 0, 0, 0, 110, 0, 0, 0, 0, 0, 0, 0, 0, 0, 0, 0, 0, 0, 0, 0, 110, 0, 0, 0, 0, 0, 0, 0, 0, 0, 0, 0, 0, 0, 0, 0, 64, 0, 0, 0, 0, 0, 0, 0, 0, 0, 0],
                 "height":16,
                 "width":16,
                 "x":0,
                 "y":0
                }, 
                {
                 "data":[0, 0, 0, 0, 0, 0, 0, 0, 0, 0, 0, 0, 0, 0, 0, 0, 0, 0, 0, 0, 0, 0, 0, 0, 0, 0, 0, 0, 0, 0, 0, 0, 0, 0, 0, 0, 0, 0, 0, 0, 0, 0, 0, 0, 0, 0, 0, 0, 0, 0, 0, 0, 0, 0, 0, 0, 0, 0, 0, 0, 0, 0, 0, 0, 0, 0, 0, 0, 0, 0, 0, 0, 0, 0, 0, 0, 0, 0, 0, 0, 0, 0, 0, 0, 0, 0, 0, 0, 0, 0, 0, 0, 0, 0, 0, 0, 0, 0, 0, 0, 0, 0, 0, 0, 0, 0, 0, 0, 0, 0, 0, 0, 0, 0, 0, 0, 0, 0, 0, 0, 0, 0, 0, 0, 0, 0, 0, 0, 0, 0, 0, 0, 0, 0, 0, 0, 0, 0, 0, 0, 0, 0, 0, 0, 0, 0, 0, 0, 0, 0, 0, 0, 0, 0, 0, 0, 0, 0, 0, 0, 153, 0, 0, 0, 0, 0, 0, 0, 0, 0, 0, 0, 0, 0, 0, 0, 153, 153, 0, 0, 0, 0, 0, 0, 0, 0, 0, 0, 0, 0, 0, 0, 0, 153, 0, 0, 14, 0, 0, 0, 0, 0, 0, 0, 0, 0, 0, 0, 0, 153, 153, 0, 0, 0, 0, 0, 0, 0, 0, 0, 0, 0, 0, 0, 0, 0, 153, 153, 0, 0, 0, 0, 0, 0, 0, 0, 0, 0, 0, 0, 0, 0, 0, 153, 153, 0, 0, 0, 0, 0, 0, 14, 0, 0, 0, 0],
                 "height":16,
                 "width":16,
                 "x":16,
                 "y":0
                }, 
                {
                 "data":[0, 0, 0, 0, 0, 0, 0, 0, 0, 0, 0, 0, 0, 0, 0, 0, 0, 0, 0, 0, 0, 0, 0, 0, 0, 0, 0, 0, 0, 0, 0, 0, 0, 0, 0, 0, 0, 0, 0, 0, 0, 0, 0, 0, 0, 0, 0, 0, 0, 0, 0, 0, 0, 0, 0, 0, 0, 0, 0, 0, 0, 0, 0, 0, 0, 0, 0, 0, 0, 0, 0, 0, 0, 0, 0, 0, 0, 0, 0, 0, 0, 0, 0, 0, 0, 0, 0, 0, 0, 0, 0, 0, 0, 0, 0, 0, 0, 0, 0, 0, 0, 0, 0, 0, 0, 0, 0, 0, 0, 0, 0, 0, 0, 0, 0, 0, 0, 0, 0, 0, 0, 0, 0, 0, 0, 0, 0, 0, 0, 0, 0, 0, 0, 0, 0, 0, 0, 0, 0, 0, 0, 0, 0, 14, 0, 0, 0, 0, 0, 0, 0, 0, 0, 0, 0, 0, 0, 0, 0, 0, 0, 0, 0, 0, 0, 0, 0, 0, 0, 0, 0, 0, 0, 0, 0, 153, 0, 0, 0, 0, 0, 0, 0, 0, 0, 0, 0, 0, 0, 0, 153, 153, 0, 0, 0, 0, 0, 0, 0, 0, 0, 0, 0, 0, 0, 0, 153, 0, 0, 0, 0, 0, 0, 0, 0, 0, 0, 0, 0, 0, 0, 153, 153, 0, 0, 0, 0, 0, 0, 0, 0, 0, 0, 0, 0, 0, 153, 153, 0, 0, 0, 0, 0, 0, 0, 0, 0, 0, 0, 0, 0, 0, 153, 153, 153, 153],
                 "height":16,
                 "width":16,
                 "x":64,
                 "y":0
                }, 
                {
                 "data":[0, 0, 0, 0, 0, 0, 0, 0, 0, 0, 0, 0, 0, 153, 153, 0, 0, 0, 0, 0, 0, 0, 0, 0, 0, 0, 0, 0, 0, 0, 153, 0, 0, 0, 0, 0, 0, 14, 0, 0, 0, 0, 0, 0, 0, 0, 153, 153, 0, 0, 0, 0, 0, 0, 0, 0, 0, 0, 0, 0, 0, 0, 0, 153, 0, 0, 0, 153, 153, 153, 153, 153, 0, 0, 0, 0, 0, 0, 0, 153, 0, 0, 153, 153, 0, 0, 0, 153, 153, 0, 0, 0, 0, 0, 0, 153, 0, 0, 153, 0, 0, 14, 0, 0, 0, 0, 0, 0, 0, 0, 153, 153, 0, 153, 0, 0, 0, 0, 0, 0, 0, 0, 0, 0, 0, 0, 153, 0, 153, 0, 0, 0, 0, 0, 0, 0, 0, 0, 0, 0, 0, 0, 153, 0, 153, 0, 0, 0, 0, 0, 0, 0, 0, 0, 0, 0, 0, 153, 153, 0, 0, 0, 0, 0, 0, 0, 153, 153, 153, 153, 153, 153, 153, 153, 153, 0, 0, 0, 0, 0, 0, 0, 153, 0, 0, 0, 0, 0, 0, 0, 153, 153, 0, 0, 0, 0, 0, 0, 153, 0, 0, 0, 0, 14, 0, 0, 0, 0, 14, 0, 0, 0, 0, 0, 153, 0, 0, 0, 0, 0, 0, 0, 0, 0, 0, 0, 0, 0, 0, 0, 0, 0, 0, 0, 0, 0, 0, 0, 0, 0, 0, 0, 0, 0, 0, 0, 0, 0, 0, 0, 0, 0, 25, 0, 0, 0],
                 "height":16,
                 "width":16,
                 "x":80,
                 "y":0
                }, 
                {
                 "data":[0, 0, 0, 0, 0, 0, 0, 0, 0, 0, 0, 0, 0, 0, 0, 0, 0, 0, 0, 0, 0, 0, 0, 0, 0, 0, 0, 0, 0, 0, 0, 0, 0, 0, 0, 0, 0, 0, 0, 0, 0, 0, 0, 0, 0, 0, 0, 0, 0, 0, 0, 0, 0, 0, 0, 0, 0, 0, 0, 0, 0, 0, 0, 0, 0, 0, 0, 0, 0, 0, 0, 0, 0, 0, 0, 0, 0, 0, 0, 0, 0, 0, 0, 0, 0, 0, 0, 0, 0, 0, 0, 0, 0, 0, 0, 0, 0, 0, 0, 0, 0, 0, 0, 0, 0, 0, 0, 0, 0, 0, 0, 0, 0, 0, 0, 0, 0, 0, 0, 0, 0, 0, 0, 0, 0, 0, 0, 0, 0, 0, 0, 0, 0, 0, 0, 0, 0, 0, 0, 0, 0, 0, 0, 0, 0, 6, 0, 0, 0, 0, 0, 0, 0, 0, 0, 0, 0, 0, 0, 0, 0, 0, 0, 0, 0, 0, 0, 0, 0, 0, 0, 0, 0, 0, 0, 0, 153, 153, 153, 153, 153, 153, 153, 0, 0, 0, 0, 0, 0, 6, 0, 0, 0, 0, 0, 0, 0, 0, 153, 153, 153, 153, 153, 0, 0, 0, 0, 0, 0, 0, 0, 14, 0, 0, 0, 0, 0, 0, 153, 153, 153, 0, 0, 0, 0, 0, 0, 0, 0, 0, 0, 0, 0, 0, 0, 25, 153, 153, 0, 0, 0, 0, 0, 0, 0, 0, 0, 0, 0, 0, 0, 25, 25, 153, 153, 0],
                 "height":16,
                 "width":16,
                 "x":96,
                 "y":0
                }, 
                {
                 "data":[0, 0, 0, 0, 0, 0, 0, 0, 0, 0, 0, 0, 0, 0, 0, 0, 0, 0, 0, 0, 0, 0, 0, 0, 0, 0, 0, 0, 0, 0, 0, 0, 0, 0, 0, 0, 0, 0, 0, 0, 0, 0, 0, 0, 0, 0, 0, 0, 0, 0, 0, 0, 0, 0, 0, 0, 0, 0, 0, 0, 0, 0, 0, 0, 0, 0, 0, 0, 0, 0, 0, 0, 0, 0, 0, 0, 0, 0, 0, 0, 0, 0, 0, 0, 0, 0, 0, 0, 0, 0, 0, 0, 0, 0, 0, 0, 0, 0, 0, 0, 0, 0, 0, 0, 0, 0, 0, 0, 0, 0, 0, 0, 0, 0, 0, 0, 0, 0, 0, 0, 0, 0, 0, 0, 0, 0, 0, 0, 0, 0, 0, 0, 0, 0, 0, 0, 0, 0, 0, 0, 0, 0, 0, 0, 0, 0, 0, 0, 0, 0, 0, 0, 0, 0, 0, 0, 0, 0, 0, 0, 0, 0, 0, 0, 0, 0, 0, 0, 0, 0, 0, 0, 0, 0, 0, 0, 0, 0, 0, 0, 0, 0, 0, 0, 0, 0, 0, 0, 0, 0, 0, 0, 0, 0, 0, 0, 0, 0, 0, 0, 0, 0, 0, 0, 0, 0, 0, 0, 0, 0, 0, 0, 0, 0, 0, 0, 0, 0, 0, 0, 0, 0, 0, 0, 0, 0, 0, 0, 0, 0, 0, 0, 0, 0, 0, 0, 0, 0, 0, 0, 6, 0, 0, 0, 0, 0, 0, 0, 0, 0, 0, 0, 0, 0, 0, 0],
                 "height":16,
                 "width":16,
                 "x":112,
                 "y":0
                }, 
                {
                 "data":[0, 0, 0, 0, 153, 153, 153, 0, 0, 0, 0, 0, 0, 0, 0, 0, 0, 0, 0, 0, 0, 0, 153, 153, 153, 153, 153, 153, 153, 153, 153, 153, 0, 0, 0, 0, 0, 0, 0, 0, 153, 153, 0, 0, 0, 14, 0, 0, 0, 0, 0, 0, 0, 0, 0, 0, 153, 0, 0, 0, 0, 0, 0, 0, 0, 0, 0, 0, 0, 0, 0, 153, 153, 0, 0, 0, 0, 0, 0, 0, 0, 0, 0, 153, 153, 153, 153, 153, 153, 153, 153, 153, 153, 153, 153, 153, 0, 0, 0, 0, 0, 0, 0, 0, 0, 0, 0, 0, 0, 0, 0, 0, 0, 0, 0, 0, 0, 0, 0, 0, 0, 0, 0, 0, 0, 0, 0, 0, 0, 0, 0, 0, 0, 0, 0, 0, 0, 0, 0, 0, 0, 0, 0, 0, 0, 0, 0, 0, 0, 0, 0, 0, 0, 0, 0, 0, 0, 0, 0, 0, 0, 0, 0, 0, 0, 0, 0, 0, 0, 0, 0, 0, 0, 0, 0, 0, 0, 0, 0, 0, 0, 0, 0, 0, 0, 0, 0, 0, 0, 0, 0, 0, 0, 0, 0, 0, 0, 0, 0, 0, 0, 0, 0, 0, 0, 0, 0, 0, 0, 0, 0, 0, 0, 0, 0, 0, 0, 0, 0, 0, 0, 0, 0, 0, 0, 0, 0, 0, 0, 0, 0, 0, 0, 0, 0, 0, 0, 0, 0, 0, 0, 0, 0, 0, 0, 0, 0, 0, 0, 0, 0, 0, 0, 0, 0, 0],
                 "height":16,
                 "width":16,
                 "x":16,
                 "y":16
                }, 
                {
                 "data":[0, 0, 0, 0, 0, 0, 0, 0, 0, 0, 0, 0, 0, 0, 0, 0, 153, 153, 153, 153, 153, 0, 0, 14, 0, 0, 0, 0, 0, 0, 0, 0, 0, 0, 0, 0, 0, 0, 0, 0, 0, 0, 0, 0, 0, 0, 0, 0, 0, 0, 0, 0, 0, 0, 0, 0, 0, 0, 0, 0, 0, 0, 0, 0, 0, 0, 0, 0, 0, 0, 153, 153, 153, 0, 0, 0, 0, 0, 0, 0, 153, 153, 153, 153, 153, 153, 153, 0, 0, 0, 0, 0, 0, 0, 0, 0, 0, 0, 0, 0, 0, 0, 0, 0, 0, 0, 0, 0, 0, 0, 0, 0, 0, 0, 0, 0, 0, 0, 0, 0, 0, 0, 0, 0, 0, 0, 0, 0, 0, 0, 0, 0, 0, 0, 0, 0, 0, 0, 0, 0, 0, 0, 0, 0, 0, 0, 0, 0, 0, 0, 0, 0, 0, 0, 0, 0, 0, 0, 0, 0, 0, 0, 0, 0, 0, 0, 0, 0, 0, 0, 0, 0, 0, 0, 0, 0, 0, 0, 0, 0, 0, 0, 0, 0, 0, 0, 0, 0, 0, 0, 0, 0, 0, 0, 0, 0, 0, 0, 0, 0, 0, 0, 0, 0, 0, 0, 0, 0, 0, 0, 0, 0, 0, 0, 0, 0, 0, 0, 0, 0, 0, 0, 0, 0, 0, 0, 0, 0, 0, 0, 0, 0, 0, 0, 0, 0, 0, 0, 0, 0, 0, 0, 0, 0, 0, 0, 0, 0, 0, 0, 0, 0, 0, 0, 0, 0],
                 "height":16,
                 "width":16,
                 "x":32,
                 "y":16
                }, 
                {
                 "data":[0, 0, 0, 0, 0, 0, 0, 0, 0, 0, 0, 0, 0, 0, 0, 0, 0, 0, 0, 0, 0, 0, 0, 0, 0, 0, 0, 0, 0, 14, 0, 0, 0, 14, 14, 0, 0, 0, 0, 0, 0, 0, 0, 0, 0, 0, 0, 0, 0, 0, 0, 0, 0, 0, 0, 0, 0, 0, 0, 0, 0, 0, 0, 0, 153, 153, 153, 153, 153, 153, 153, 0, 0, 0, 0, 0, 153, 153, 0, 0, 0, 0, 0, 0, 0, 0, 0, 0, 0, 0, 0, 0, 0, 0, 0, 0, 0, 0, 0, 0, 0, 0, 0, 0, 0, 0, 0, 0, 0, 0, 0, 0, 0, 0, 0, 0, 0, 0, 0, 0, 0, 0, 0, 0, 0, 0, 0, 0, 0, 0, 0, 0, 0, 0, 0, 0, 0, 0, 0, 0, 0, 0, 0, 0, 0, 0, 0, 0, 0, 0, 0, 0, 0, 0, 0, 0, 0, 0, 0, 0, 0, 0, 0, 0, 0, 0, 0, 0, 0, 0, 0, 0, 0, 0, 0, 0, 0, 0, 0, 0, 0, 0, 0, 0, 0, 0, 0, 0, 0, 0, 0, 0, 0, 0, 0, 0, 0, 0, 0, 0, 0, 0, 0, 0, 0, 0, 0, 0, 0, 0, 0, 0, 0, 0, 0, 0, 0, 0, 0, 0, 0, 0, 0, 0, 0, 0, 0, 0, 0, 0, 0, 0, 0, 0, 0, 0, 0, 0, 0, 0, 0, 0, 0, 0, 0, 0, 0, 0, 0, 0, 0, 0, 0, 0, 0, 0],
                 "height":16,
                 "width":16,
                 "x":48,
                 "y":16
                }, 
                {
                 "data":[0, 0, 0, 0, 0, 0, 0, 0, 0, 0, 0, 0, 0, 0, 0, 153, 0, 0, 0, 14, 0, 0, 0, 0, 0, 0, 0, 0, 0, 0, 0, 0, 0, 0, 0, 0, 0, 0, 0, 14, 14, 0, 0, 0, 0, 0, 0, 0, 0, 0, 0, 0, 0, 0, 0, 0, 0, 0, 0, 0, 0, 0, 0, 0, 0, 0, 153, 153, 0, 0, 153, 153, 0, 0, 153, 0, 0, 0, 0, 0, 0, 0, 0, 0, 0, 0, 0, 0, 0, 0, 0, 0, 0, 0, 0, 0, 0, 0, 0, 0, 0, 0, 0, 0, 0, 0, 0, 0, 0, 0, 0, 0, 0, 0, 0, 0, 0, 0, 0, 0, 0, 0, 0, 0, 0, 0, 0, 0, 0, 0, 0, 0, 0, 0, 0, 0, 0, 0, 0, 0, 0, 0, 0, 0, 0, 0, 0, 0, 0, 0, 0, 0, 0, 0, 0, 0, 0, 0, 0, 0, 0, 0, 0, 0, 0, 0, 0, 0, 0, 0, 0, 0, 0, 0, 0, 0, 0, 0, 0, 0, 0, 0, 0, 0, 0, 0, 0, 0, 0, 0, 0, 0, 0, 0, 0, 0, 0, 0, 0, 0, 0, 0, 0, 0, 0, 0, 0, 0, 0, 0, 0, 0, 0, 0, 0, 0, 0, 0, 0, 0, 0, 0, 0, 0, 0, 0, 0, 0, 0, 0, 0, 0, 0, 0, 0, 0, 0, 0, 0, 0, 0, 0, 0, 0, 0, 0, 0, 0, 0, 0, 0, 0, 0, 0, 0, 0],
                 "height":16,
                 "width":16,
                 "x":64,
                 "y":16
                }, 
                {
                 "data":[153, 0, 153, 153, 153, 0, 0, 0, 0, 153, 153, 0, 153, 153, 0, 153, 153, 153, 153, 0, 153, 0, 0, 0, 0, 0, 0, 0, 0, 0, 0, 0, 0, 153, 0, 0, 153, 153, 0, 0, 0, 25, 0, 0, 0, 0, 0, 0, 0, 153, 0, 0, 0, 153, 153, 0, 0, 25, 25, 0, 0, 0, 0, 0, 0, 0, 0, 0, 0, 0, 153, 153, 153, 153, 153, 153, 153, 153, 153, 153, 0, 0, 0, 0, 0, 0, 0, 0, 0, 0, 0, 0, 0, 14, 0, 0, 0, 0, 0, 0, 0, 0, 0, 0, 0, 0, 0, 0, 0, 0, 0, 0, 0, 0, 0, 0, 0, 0, 0, 0, 0, 0, 0, 0, 0, 0, 0, 153, 0, 0, 0, 0, 0, 0, 0, 0, 0, 0, 0, 0, 0, 0, 0, 0, 0, 0, 0, 0, 0, 0, 0, 0, 0, 0, 0, 0, 0, 0, 0, 0, 0, 0, 0, 0, 0, 0, 0, 0, 0, 0, 0, 0, 0, 0, 0, 0, 0, 0, 0, 0, 0, 0, 0, 0, 0, 0, 0, 0, 0, 0, 0, 0, 0, 0, 0, 0, 0, 0, 0, 0, 0, 0, 0, 0, 0, 0, 0, 0, 0, 0, 0, 0, 0, 0, 0, 0, 0, 0, 0, 0, 0, 0, 0, 0, 0, 0, 0, 0, 0, 0, 0, 0, 0, 0, 0, 0, 0, 0, 0, 0, 0, 0, 0, 0, 0, 0, 0, 0, 0, 0, 0, 0, 0, 0, 0, 0],
                 "height":16,
                 "width":16,
                 "x":80,
                 "y":16
                }, 
                {
                 "data":[0, 153, 0, 153, 0, 153, 0, 153, 153, 153, 153, 153, 153, 153, 153, 0, 0, 0, 0, 0, 0, 0, 14, 0, 0, 0, 45, 0, 0, 0, 0, 0, 0, 0, 0, 0, 0, 0, 0, 0, 0, 0, 45, 45, 0, 0, 0, 0, 0, 0, 0, 0, 0, 0, 0, 0, 0, 0, 45, 45, 0, 0, 153, 153, 153, 153, 153, 153, 153, 153, 153, 153, 153, 153, 153, 153, 153, 153, 153, 0, 0, 0, 0, 0, 0, 0, 0, 0, 0, 0, 0, 0, 0, 0, 0, 0, 0, 0, 0, 0, 0, 0, 0, 0, 0, 0, 0, 14, 0, 0, 0, 0, 153, 153, 153, 0, 0, 0, 0, 0, 0, 0, 0, 0, 153, 153, 153, 0, 0, 0, 0, 0, 0, 0, 0, 0, 0, 0, 0, 0, 0, 0, 0, 0, 0, 0, 0, 0, 0, 0, 153, 153, 153, 153, 0, 0, 0, 0, 0, 0, 0, 0, 0, 14, 0, 0, 0, 0, 0, 0, 0, 0, 0, 0, 0, 0, 0, 0, 0, 0, 0, 0, 0, 0, 0, 0, 0, 0, 0, 0, 0, 0, 0, 0, 153, 153, 153, 153, 0, 0, 0, 0, 0, 0, 153, 153, 153, 0, 0, 0, 0, 0, 0, 0, 0, 0, 0, 0, 0, 0, 0, 0, 0, 0, 0, 0, 0, 0, 0, 0, 0, 0, 0, 0, 0, 0, 0, 0, 0, 0, 0, 0, 0, 0, 0, 0, 0, 0, 0, 153, 153, 153, 153, 153, 153, 153],
                 "height":16,
                 "width":16,
                 "x":96,
                 "y":16
                }, 
                {
                 "data":[0, 0, 0, 0, 0, 0, 0, 0, 0, 0, 0, 0, 0, 0, 0, 0, 0, 0, 0, 0, 0, 0, 0, 0, 0, 0, 0, 0, 0, 0, 0, 0, 0, 0, 0, 0, 0, 0, 0, 0, 0, 0, 0, 0, 0, 0, 0, 0, 153, 0, 0, 14, 0, 0, 0, 0, 0, 0, 0, 0, 0, 0, 0, 0, 153, 153, 0, 0, 0, 0, 0, 0, 0, 0, 0, 0, 0, 0, 0, 0, 0, 153, 153, 0, 0, 0, 0, 0, 14, 0, 0, 0, 0, 0, 0, 0, 0, 0, 153, 153, 0, 0, 0, 0, 0, 0, 0, 0, 0, 0, 0, 0, 0, 0, 0, 153, 153, 153, 153, 153, 153, 0, 60, 0, 0, 0, 0, 0, 0, 0, 0, 0, 0, 0, 0, 0, 153, 153, 60, 0, 0, 0, 0, 0, 0, 0, 0, 0, 0, 0, 0, 0, 0, 153, 60, 0, 0, 0, 0, 0, 0, 0, 0, 0, 0, 0, 14, 0, 0, 0, 60, 0, 0, 0, 0, 0, 0, 0, 0, 0, 0, 0, 0, 0, 0, 0, 60, 0, 0, 0, 0, 0, 0, 0, 153, 153, 153, 0, 0, 0, 0, 0, 60, 0, 0, 0, 0, 0, 0, 0, 0, 0, 0, 0, 0, 0, 0, 0, 60, 0, 0, 0, 0, 0, 0, 0, 0, 0, 0, 0, 0, 0, 0, 0, 60, 0, 0, 0, 0, 0, 153, 153, 153, 153, 153, 153, 153, 153, 153, 153, 153, 153, 153, 0, 0, 0],
                 "height":16,
                 "width":16,
                 "x":112,
                 "y":16
                }, 
                {
                 "data":[0, 0, 0, 0, 0, 0, 0, 0, 0, 0, 0, 0, 0, 0, 0, 0, 0, 0, 0, 0, 0, 0, 0, 0, 0, 0, 0, 0, 126, 0, 0, 0, 0, 0, 0, 0, 0, 0, 0, 0, 0, 0, 0, 0, 130, 0, 0, 0, 0, 0, 0, 0, 0, 0, 0, 0, 0, 0, 0, 0, 0, 153, 153, 153, 0, 0, 0, 0, 0, 0, 0, 0, 0, 0, 0, 0, 0, 0, 0, 0, 0, 0, 0, 0, 0, 0, 0, 0, 0, 0, 0, 0, 0, 0, 0, 0, 0, 0, 0, 0, 0, 0, 0, 0, 0, 0, 0, 0, 0, 0, 0, 0, 0, 0, 0, 0, 0, 0, 0, 0, 0, 0, 0, 0, 0, 0, 0, 0, 0, 0, 0, 0, 0, 0, 0, 0, 0, 0, 0, 0, 0, 0, 0, 0, 0, 0, 0, 0, 0, 0, 0, 0, 0, 0, 0, 0, 0, 0, 0, 0, 0, 0, 0, 0, 0, 0, 0, 0, 0, 0, 0, 0, 0, 0, 0, 0, 0, 0, 0, 0, 0, 0, 0, 0, 0, 0, 0, 0, 0, 0, 0, 0, 0, 0, 0, 0, 0, 0, 0, 0, 0, 0, 0, 0, 0, 0, 0, 0, 0, 0, 0, 0, 0, 0, 0, 0, 0, 0, 0, 0, 0, 0, 0, 0, 0, 0, 0, 0, 0, 0, 0, 0, 0, 0, 0, 0, 0, 0, 0, 0, 0, 0, 0, 0, 0, 0, 0, 0, 0, 0, 0, 0, 0, 0, 0, 0],
                 "height":16,
                 "width":16,
                 "x":48,
                 "y":32
                }, 
                {
                 "data":[0, 0, 0, 0, 0, 0, 0, 0, 0, 0, 0, 0, 0, 0, 0, 0, 0, 0, 0, 0, 0, 0, 0, 0, 0, 0, 0, 0, 0, 0, 0, 0, 0, 0, 0, 0, 0, 0, 0, 0, 0, 0, 0, 0, 0, 0, 0, 0, 153, 153, 153, 0, 0, 0, 0, 0, 0, 0, 0, 0, 0, 0, 0, 0, 0, 0, 0, 0, 0, 0, 0, 0, 0, 0, 0, 0, 0, 0, 0, 0, 0, 0, 0, 0, 0, 0, 0, 0, 0, 0, 0, 0, 0, 0, 0, 0, 0, 0, 0, 0, 0, 0, 0, 0, 0, 0, 0, 0, 0, 0, 0, 0, 0, 0, 0, 0, 0, 0, 0, 0, 0, 0, 0, 0, 0, 0, 0, 0, 0, 0, 0, 0, 0, 0, 0, 0, 0, 0, 0, 0, 0, 0, 0, 0, 0, 0, 0, 0, 0, 0, 0, 0, 0, 0, 0, 0, 0, 0, 0, 0, 0, 0, 0, 0, 0, 0, 0, 0, 0, 0, 0, 0, 0, 0, 0, 0, 0, 0, 0, 0, 0, 0, 0, 0, 0, 0, 0, 0, 0, 0, 0, 0, 0, 0, 0, 0, 0, 0, 0, 0, 0, 0, 0, 0, 0, 0, 0, 0, 0, 0, 0, 0, 153, 0, 0, 0, 0, 0, 0, 0, 0, 0, 0, 0, 0, 0, 0, 0, 153, 153, 153, 153, 153, 153, 153, 153, 153, 153, 153, 153, 0, 0, 0, 0, 0, 0, 0, 0, 0, 0, 0, 0, 0, 0, 0, 0],
                 "height":16,
                 "width":16,
                 "x":64,
                 "y":32
                }, 
                {
                 "data":[0, 0, 0, 0, 0, 0, 0, 0, 0, 153, 153, 153, 153, 153, 153, 153, 0, 0, 0, 0, 0, 0, 0, 0, 153, 153, 0, 0, 0, 0, 0, 0, 0, 0, 0, 0, 0, 0, 0, 153, 153, 0, 0, 0, 0, 0, 0, 0, 0, 0, 0, 0, 0, 0, 0, 153, 0, 0, 0, 0, 0, 0, 0, 0, 0, 0, 0, 0, 0, 0, 0, 0, 0, 0, 0, 0, 0, 0, 0, 0, 0, 0, 0, 0, 0, 0, 0, 0, 0, 0, 0, 0, 0, 0, 0, 0, 0, 0, 0, 0, 0, 0, 0, 0, 0, 0, 0, 0, 0, 0, 0, 0, 0, 0, 0, 0, 0, 0, 0, 0, 0, 0, 0, 0, 0, 0, 0, 0, 0, 0, 0, 0, 0, 0, 0, 0, 0, 0, 0, 0, 0, 0, 0, 0, 0, 0, 0, 0, 0, 0, 0, 0, 0, 0, 0, 0, 0, 0, 0, 0, 0, 0, 0, 0, 0, 0, 0, 0, 0, 0, 0, 0, 0, 0, 0, 0, 0, 0, 0, 0, 0, 0, 0, 0, 0, 0, 0, 0, 0, 0, 0, 0, 0, 0, 0, 0, 0, 0, 0, 0, 0, 0, 0, 0, 0, 0, 0, 0, 0, 0, 0, 0, 0, 0, 153, 0, 0, 0, 0, 0, 0, 0, 0, 0, 153, 153, 153, 153, 153, 153, 153, 0, 0, 0, 0, 0, 0, 0, 0, 0, 0, 0, 0, 0, 0, 0, 0, 0, 0, 0, 0, 0, 0, 0, 0, 0],
                 "height":16,
                 "width":16,
                 "x":80,
                 "y":32
                }, 
                {
                 "data":[153, 153, 153, 153, 153, 153, 153, 153, 153, 153, 0, 0, 0, 0, 0, 0, 0, 0, 0, 0, 0, 0, 0, 0, 0, 0, 0, 0, 0, 0, 0, 0, 0, 0, 0, 0, 0, 0, 0, 0, 0, 0, 0, 0, 0, 0, 0, 0, 0, 0, 0, 0, 0, 0, 0, 0, 0, 0, 0, 0, 0, 0, 0, 0, 0, 0, 0, 0, 0, 0, 0, 0, 0, 0, 0, 0, 0, 0, 0, 0, 0, 0, 0, 0, 0, 0, 0, 0, 0, 0, 0, 0, 0, 0, 0, 0, 0, 0, 0, 0, 0, 0, 0, 0, 0, 0, 0, 0, 0, 0, 0, 0, 0, 0, 0, 0, 0, 0, 0, 0, 0, 0, 0, 0, 0, 0, 0, 0, 0, 0, 0, 0, 0, 0, 0, 0, 0, 0, 0, 0, 0, 0, 0, 0, 0, 0, 0, 0, 0, 0, 0, 0, 0, 0, 0, 0, 0, 0, 0, 0, 0, 0, 0, 0, 0, 0, 0, 0, 0, 0, 0, 0, 0, 0, 0, 0, 0, 0, 0, 0, 0, 0, 0, 0, 0, 0, 0, 0, 0, 0, 0, 0, 0, 0, 0, 0, 0, 0, 0, 0, 0, 0, 0, 0, 0, 0, 0, 0, 0, 0, 0, 0, 0, 0, 0, 0, 0, 0, 0, 0, 0, 0, 0, 0, 0, 0, 0, 0, 0, 0, 0, 0, 0, 0, 0, 0, 0, 0, 0, 0, 0, 0, 0, 0, 0, 0, 0, 0, 0, 0, 0, 0, 0, 0, 0, 0],
                 "height":16,
                 "width":16,
                 "x":96,
                 "y":32
                }],
         "height":64,
         "id":1,
         "name":"ground",
         "opacity":1,
         "startx":0,
         "starty":-16,
         "type":"tilelayer",
         "visible":true,
         "width":128,
         "x":0,
         "y":0
        }, 
        {
         "draworder":"topdown",
         "id":2,
         "name":"objects",
         "objects":[
                {
                 "height":80,
                 "id":2,
                 "name":"burger",
                 "rotation":0,
                 "type":"",
                 "visible":true,
                 "width":80,
                 "x":3604.85076150423,
                 "y":1148.48719937936
                }, 
                {
                 "height":80,
                 "id":3,
                 "name":"burger",
                 "rotation":0,
                 "type":"",
                 "visible":true,
                 "width":80,
                 "x":800,
                 "y":400
                }, 
                {
                 "height":80,
                 "id":4,
                 "name":"spring",
                 "rotation":0,
                 "type":"",
                 "visible":true,
                 "width":80,
                 "x":1195.55101874158,
                 "y":714.747458249969
                }, 
                {
                 "height":80,
                 "id":5,
                 "name":"spring",
                 "rotation":0,
                 "type":"",
                 "visible":true,
                 "width":80,
                 "x":482.423747499081,
                 "y":405.252541750031
                }, 
                {
                 "height":80,
                 "id":7,
                 "name":"spike",
                 "rotation":0,
                 "type":"",
                 "visible":true,
                 "width":80,
                 "x":643.635621248622,
                 "y":399.594953248132
                }, 
                {
                 "height":80,
                 "id":8,
                 "name":"teleport",
                 "properties":[
                        {
                         "name":"pair",
                         "type":"int",
                         "value":12
                        }],
                 "rotation":0,
                 "type":"",
                 "visible":true,
                 "width":80,
                 "x":4798.30582663019,
                 "y":2795.33714425707
                }, 
                {
                 "height":80,
                 "id":13,
                 "name":"burger",
                 "rotation":0,
                 "type":"",
                 "visible":true,
                 "width":80,
                 "x":2166.06753501286,
                 "y":1577.78285900943
                }, 
                {
                 "height":80,
                 "id":14,
                 "name":"spring",
                 "rotation":0,
                 "type":"",
                 "visible":true,
                 "width":80,
                 "x":3319.00044914458,
                 "y":1527.88371238414
                }, 
                {
                 "height":80,
                 "id":15,
                 "name":"spring",
                 "rotation":0,
                 "type":"",
                 "visible":true,
                 "width":80,
                 "x":4390.51896615083,
                 "y":1517.37862888408
                }, 
                {
                 "height":80,
                 "id":16,
                 "name":"spring",
                 "rotation":0,
                 "type":"",
                 "visible":true,
                 "width":80,
                 "x":4829.10620227839,
                 "y":1488.48964925891
                }, 
                {
                 "height":80,
                 "id":17,
                 "name":"spring",
                 "rotation":0,
                 "type":"",
                 "visible":true,
                 "width":80,
                 "x":5911.1298027847,
                 "y":1501.62100363399
                }, 
                {
                 "height":80,
                 "id":18,
                 "name":"burger",
                 "rotation":0,
                 "type":"",
                 "visible":true,
                 "width":80,
                 "x":4574.3579274019,
                 "y":1162.83206075701
                }, 
                {
                 "height":80,
                 "id":19,
                 "name":"burger",
                 "rotation":0,
                 "type":"",
                 "visible":true,
                 "width":80,
                 "x":5574.96713078274,
                 "y":1485.8633783839
                }, 
                {
                 "height":80,
                 "id":20,
                 "name":"spike",
                 "rotation":0,
                 "type":"",
                 "visible":true,
                 "width":80,
                 "x":3064,
                 "y":2160
                }, 
                {
                 "height":80,
                 "id":31,
                 "name":"spike",
                 "rotation":0,
                 "type":"",
                 "visible":true,
                 "width":80,
                 "x":480,
                 "y":726
                }, 
                {
                 "height":80,
                 "id":32,
                 "name":"spike",
                 "rotation":0,
                 "type":"",
                 "visible":true,
                 "width":80,
                 "x":480,
                 "y":800
                }, 
                {
                 "height":80,
                 "id":33,
                 "name":"spike",
                 "rotation":0,
                 "type":"",
                 "visible":true,
                 "width":80,
                 "x":480,
                 "y":558
                }, 
                {
                 "height":80,
                 "id":40,
                 "name":"spike",
                 "rotation":0,
                 "type":"",
                 "visible":true,
                 "width":80,
                 "x":480,
                 "y":648
                }, 
                {
                 "height":80,
                 "id":42,
                 "name":"spike",
                 "rotation":0,
                 "type":"",
                 "visible":true,
                 "width":80,
                 "x":3048,
                 "y":2152
                }, 
                {
                 "height":80,
                 "id":43,
                 "name":"spike",
                 "rotation":0,
                 "type":"",
                 "visible":true,
                 "width":80,
                 "x":3184,
                 "y":2120
                }, 
                {
                 "height":80,
                 "id":44,
                 "name":"spike",
                 "rotation":0,
                 "type":"",
                 "visible":true,
                 "width":80,
                 "x":3272,
                 "y":2112
                }, 
                {
                 "height":80,
                 "id":45,
                 "name":"spike",
                 "rotation":0,
                 "type":"",
                 "visible":true,
                 "width":80,
                 "x":3408,
                 "y":2096
                }, 
                {
                 "height":80,
                 "id":46,
                 "name":"spike",
                 "rotation":0,
                 "type":"",
                 "visible":true,
                 "width":80,
                 "x":3576,
                 "y":2080
                }, 
                {
                 "height":80,
                 "id":47,
                 "name":"spike",
                 "rotation":0,
                 "type":"",
                 "visible":true,
                 "width":80,
                 "x":3688,
                 "y":2088
                }, 
                {
                 "height":80,
                 "id":48,
                 "name":"spike",
                 "rotation":0,
                 "type":"",
                 "visible":true,
                 "width":80,
                 "x":3832,
                 "y":2136
                }, 
                {
                 "height":80,
                 "id":49,
                 "name":"spike",
                 "rotation":0,
                 "type":"",
                 "visible":true,
                 "width":80,
                 "x":3936,
                 "y":2168
                }, 
                {
                 "height":80,
                 "id":50,
                 "name":"spike",
                 "rotation":0,
                 "type":"",
                 "visible":true,
                 "width":80,
                 "x":3760,
                 "y":2168
                }, 
                {
                 "height":80,
                 "id":51,
                 "name":"spike",
                 "rotation":0,
                 "type":"",
                 "visible":true,
                 "width":80,
                 "x":3512,
                 "y":2160
                }, 
                {
                 "height":80,
                 "id":52,
                 "name":"spike",
                 "rotation":0,
                 "type":"",
                 "visible":true,
                 "width":80,
                 "x":3256,
                 "y":2120
                }, 
                {
                 "height":80,
                 "id":53,
                 "name":"spike",
                 "rotation":0,
                 "type":"",
                 "visible":true,
                 "width":80,
                 "x":3216,
                 "y":2120
                }, 
                {
                 "height":80,
                 "id":54,
                 "name":"spike",
                 "rotation":0,
                 "type":"",
                 "visible":true,
                 "width":80,
                 "x":3376,
                 "y":2160
                }, 
                {
                 "height":80,
                 "id":55,
                 "name":"spike",
                 "rotation":0,
                 "type":"",
                 "visible":true,
                 "width":80,
                 "x":3712,
                 "y":2176
                }, 
                {
                 "height":80,
                 "id":56,
                 "name":"spike",
                 "rotation":0,
                 "type":"",
                 "visible":true,
                 "width":80,
                 "x":3872,
                 "y":2184
                }, 
                {
                 "height":80,
                 "id":57,
                 "name":"spike",
                 "rotation":0,
                 "type":"",
                 "visible":true,
                 "width":80,
                 "x":3800,
                 "y":2184
                }, 
                {
                 "height":80,
                 "id":58,
                 "name":"spike",
                 "rotation":0,
                 "type":"",
                 "visible":true,
                 "width":80,
                 "x":3144,
                 "y":2208
                }, 
                {
                 "height":80,
                 "id":59,
                 "name":"spike",
                 "rotation":0,
                 "type":"",
                 "visible":true,
                 "width":80,
                 "x":3568,
                 "y":2112
                }, 
                {
                 "height":80,
                 "id":60,
                 "name":"spike",
                 "rotation":0,
                 "type":"",
                 "visible":true,
                 "width":80,
                 "x":4024,
                 "y":2072
                }, 
                {
                 "height":80,
                 "id":61,
                 "name":"spike",
                 "rotation":0,
                 "type":"",
                 "visible":true,
                 "width":80,
                 "x":4344,
                 "y":2048
                }, 
                {
                 "height":80,
                 "id":62,
                 "name":"spike",
                 "rotation":0,
                 "type":"",
                 "visible":true,
                 "width":80,
                 "x":4552,
                 "y":2048
                }, 
                {
                 "height":80,
                 "id":63,
                 "name":"spike",
                 "rotation":0,
                 "type":"",
                 "visible":true,
                 "width":80,
                 "x":4864,
                 "y":2040
                }, 
                {
                 "height":80,
                 "id":64,
                 "name":"spike",
                 "rotation":0,
                 "type":"",
                 "visible":true,
                 "width":80,
                 "x":5272,
                 "y":2016
                }, 
                {
                 "height":80,
                 "id":65,
                 "name":"spike",
                 "rotation":0,
                 "type":"",
                 "visible":true,
                 "width":80,
                 "x":5528,
                 "y":2008
                }, 
                {
                 "height":80,
                 "id":66,
                 "name":"spike",
                 "rotation":0,
                 "type":"",
                 "visible":true,
                 "width":80,
                 "x":5824,
                 "y":1992
                }, 
                {
                 "height":80,
                 "id":67,
                 "name":"spike",
                 "rotation":0,
                 "type":"",
                 "visible":true,
                 "width":80,
                 "x":5888,
                 "y":1984
                }, 
                {
                 "height":80,
                 "id":68,
                 "name":"spike",
                 "rotation":0,
                 "type":"",
                 "visible":true,
                 "width":80,
                 "x":5440,
                 "y":1944
                }, 
                {
                 "height":80,
                 "id":69,
                 "name":"spike",
                 "rotation":0,
                 "type":"",
                 "visible":true,
                 "width":80,
                 "x":5184,
                 "y":1968
                }, 
                {
                 "height":80,
                 "id":70,
                 "name":"spike",
                 "rotation":0,
                 "type":"",
                 "visible":true,
                 "width":80,
                 "x":4776,
                 "y":2008
                }, 
                {
                 "height":80,
                 "id":71,
                 "name":"spike",
                 "rotation":0,
                 "type":"",
                 "visible":true,
                 "width":80,
                 "x":4440,
                 "y":2032
                }, 
                {
                 "height":80,
                 "id":72,
                 "name":"spike",
                 "rotation":0,
                 "type":"",
                 "visible":true,
                 "width":80,
                 "x":4304,
                 "y":2032
                }, 
                {
                 "height":80,
                 "id":73,
                 "name":"spike",
                 "rotation":0,
                 "type":"",
                 "visible":true,
                 "width":80,
                 "x":4656,
                 "y":2008
                }, 
                {
                 "height":80,
                 "id":74,
                 "name":"spike",
                 "rotation":0,
                 "type":"",
                 "visible":true,
                 "width":80,
                 "x":5040,
                 "y":2048
                }, 
                {
                 "height":80,
                 "id":75,
                 "name":"spike",
                 "rotation":0,
                 "type":"",
                 "visible":true,
                 "width":80,
                 "x":5232,
                 "y":2040
                }, 
                {
                 "height":80,
                 "id":76,
                 "name":"spike",
                 "rotation":0,
                 "type":"",
                 "visible":true,
                 "width":80,
                 "x":4976,
                 "y":2040
                }, 
                {
                 "height":80,
                 "id":77,
                 "name":"spike",
                 "rotation":0,
                 "type":"",
                 "visible":true,
                 "width":80,
                 "x":5072,
                 "y":2032
                }, 
                {
                 "height":80,
                 "id":78,
                 "name":"spike",
                 "rotation":0,
                 "type":"",
                 "visible":true,
                 "width":80,
                 "x":5016,
                 "y":2032
                }, 
                {
                 "height":80,
                 "id":79,
                 "name":"spike",
                 "rotation":0,
                 "type":"",
                 "visible":true,
                 "width":80,
                 "x":5256,
                 "y":2016
                }, 
                {
                 "height":80,
                 "id":80,
                 "name":"spike",
                 "rotation":0,
                 "type":"",
                 "visible":true,
                 "width":80,
                 "x":5496,
                 "y":2008
                }, 
                {
                 "height":80,
                 "id":81,
                 "name":"spike",
                 "rotation":0,
                 "type":"",
                 "visible":true,
                 "width":80,
                 "x":5632,
                 "y":2000
                }, 
                {
                 "height":80,
                 "id":82,
                 "name":"spike",
                 "rotation":0,
                 "type":"",
                 "visible":true,
                 "width":80,
                 "x":5776,
                 "y":1992
                }, 
                {
                 "height":80,
                 "id":83,
                 "name":"spike",
                 "rotation":0,
                 "type":"",
                 "visible":true,
                 "width":80,
                 "x":5256,
                 "y":2000
                }, 
                {
                 "height":80,
                 "id":84,
                 "name":"spike",
                 "rotation":0,
                 "type":"",
                 "visible":true,
                 "width":80,
                 "x":4976,
                 "y":2008
                }, 
                {
                 "height":80,
                 "id":85,
                 "name":"spike",
                 "rotation":0,
                 "type":"",
                 "visible":true,
                 "width":80,
                 "x":4704,
                 "y":1992
                }, 
                {
                 "height":80,
                 "id":86,
                 "name":"spike",
                 "rotation":0,
                 "type":"",
                 "visible":true,
                 "width":80,
                 "x":4480,
                 "y":1984
                }, 
                {
                 "height":80,
                 "id":87,
                 "name":"spike",
                 "rotation":0,
                 "type":"",
                 "visible":true,
                 "width":80,
                 "x":4320,
                 "y":2040
                }, 
                {
                 "height":80,
                 "id":88,
                 "name":"spike",
                 "rotation":0,
                 "type":"",
                 "visible":true,
                 "width":80,
                 "x":4184,
                 "y":2040
                }, 
                {
                 "height":80,
                 "id":89,
                 "name":"spike",
                 "rotation":0,
                 "type":"",
                 "visible":true,
                 "width":80,
                 "x":4368,
                 "y":2024
                }, 
                {
                 "height":80,
                 "id":90,
                 "name":"spike",
                 "rotation":0,
                 "type":"",
                 "visible":true,
                 "width":80,
                 "x":4752,
                 "y":2032
                }, 
                {
                 "height":80,
                 "id":91,
                 "name":"spike",
                 "rotation":0,
                 "type":"",
                 "visible":true,
                 "width":80,
                 "x":4984,
                 "y":2040
                }, 
                {
                 "height":80,
                 "id":92,
                 "name":"spike",
                 "rotation":0,
                 "type":"",
                 "visible":true,
                 "width":80,
                 "x":5160,
                 "y":2032
                }, 
                {
                 "height":80,
                 "id":93,
                 "name":"spike",
                 "rotation":0,
                 "type":"",
                 "visible":true,
                 "width":80,
                 "x":5304,
                 "y":2024
                }, 
                {
                 "height":80,
                 "id":94,
                 "name":"spike",
                 "rotation":0,
                 "type":"",
                 "visible":true,
                 "width":80,
                 "x":5608,
                 "y":2048
                }, 
                {
                 "height":80,
                 "id":95,
                 "name":"spike",
                 "rotation":0,
                 "type":"",
                 "visible":true,
                 "width":80,
                 "x":5848,
                 "y":1984
                }, 
                {
                 "height":80,
                 "id":96,
                 "name":"spike",
                 "rotation":0,
                 "type":"",
                 "visible":true,
                 "width":80,
                 "x":5984,
                 "y":1928
                }, 
                {
                 "height":80,
                 "id":97,
                 "name":"spike",
                 "rotation":0,
                 "type":"",
                 "visible":true,
                 "width":80,
                 "x":6192,
                 "y":1968
                }, 
                {
                 "height":80,
                 "id":98,
                 "name":"spike",
                 "rotation":0,
                 "type":"",
                 "visible":true,
                 "width":80,
                 "x":2794,
                 "y":1598
                }, 
                {
                 "height":80,
                 "id":99,
                 "name":"spike",
                 "rotation":0,
                 "type":"",
                 "visible":true,
                 "width":80,
                 "x":2482,
                 "y":1598
                }, 
                {
                 "height":80,
                 "id":100,
                 "name":"spike",
                 "rotation":0,
                 "type":"",
                 "visible":true,
                 "width":80,
                 "x":1998,
                 "y":1278
                }, 
                {
                 "height":80,
                 "id":101,
                 "name":"spike",
                 "rotation":0,
                 "type":"",
                 "visible":true,
                 "width":80,
                 "x":1922,
                 "y":1278
                }, 
                {
                 "height":80,
                 "id":102,
                 "name":"spike",
                 "rotation":0,
                 "type":"",
                 "visible":true,
                 "width":80,
                 "x":6076,
                 "y":1922
                }, 
                {
                 "height":80,
                 "id":103,
                 "name":"spike",
                 "rotation":0,
                 "type":"",
                 "visible":true,
                 "width":80,
                 "x":6044,
                 "y":1916
                }, 
                {
                 "height":80,
                 "id":104,
                 "name":"spike",
                 "rotation":0,
                 "type":"",
                 "visible":true,
                 "width":80,
                 "x":6072,
                 "y":1920
                }, 
                {
                 "height":80,
                 "id":105,
                 "name":"spike",
                 "rotation":0,
                 "type":"",
                 "visible":true,
                 "width":80,
                 "x":6116,
                 "y":1920
                }, 
                {
                 "height":80,
                 "id":106,
                 "name":"spike",
                 "rotation":0,
                 "type":"",
                 "visible":true,
                 "width":80,
                 "x":6160,
                 "y":1920
                }, 
                {
                 "height":80,
                 "id":107,
                 "name":"spike",
                 "rotation":0,
                 "type":"",
                 "visible":true,
                 "width":80,
                 "x":6196,
                 "y":1922
                }, 
                {
                 "height":80,
                 "id":108,
                 "name":"spike",
                 "rotation":0,
                 "type":"",
                 "visible":true,
                 "width":80,
                 "x":6246,
                 "y":1920
                }, 
                {
                 "height":80,
                 "id":109,
                 "name":"spike",
                 "rotation":0,
                 "type":"",
                 "visible":true,
                 "width":80,
                 "x":6270,
                 "y":1918
                }, 
                {
                 "height":80,
                 "id":110,
                 "name":"spike",
                 "rotation":0,
                 "type":"",
                 "visible":true,
                 "width":80,
                 "x":6296,
                 "y":1920
                }, 
                {
                 "height":80,
                 "id":111,
                 "name":"spike",
                 "rotation":0,
                 "type":"",
                 "visible":true,
                 "width":80,
                 "x":6328,
                 "y":1928
                }, 
                {
                 "height":80,
                 "id":112,
                 "name":"spike",
                 "rotation":0,
                 "type":"",
                 "visible":true,
                 "width":80,
                 "x":6358,
                 "y":1934
                }, 
                {
                 "height":80,
                 "id":113,
                 "name":"spike",
                 "rotation":0,
                 "type":"",
                 "visible":true,
                 "width":80,
                 "x":6400,
                 "y":1936
                }, 
                {
                 "height":80,
                 "id":114,
                 "name":"spike",
                 "rotation":0,
                 "type":"",
                 "visible":true,
                 "width":80,
                 "x":6426,
                 "y":1938
                }, 
                {
                 "height":80,
                 "id":115,
                 "name":"spike",
                 "rotation":0,
                 "type":"",
                 "visible":true,
                 "width":80,
                 "x":6456,
                 "y":1938
                }, 
                {
                 "height":80,
                 "id":116,
                 "name":"spike",
                 "rotation":0,
                 "type":"",
                 "visible":true,
                 "width":80,
                 "x":6484,
                 "y":1940
                }, 
                {
                 "height":80,
                 "id":117,
                 "name":"spike",
                 "rotation":0,
                 "type":"",
                 "visible":true,
                 "width":80,
                 "x":6144,
                 "y":1924
                }, 
                {
                 "height":80,
                 "id":118,
                 "name":"spike",
                 "rotation":0,
                 "type":"",
                 "visible":true,
                 "width":80,
                 "x":5998,
                 "y":1902
                }, 
                {
                 "height":80,
                 "id":119,
                 "name":"spike",
                 "rotation":0,
                 "type":"",
                 "visible":true,
                 "width":80,
                 "x":5950,
                 "y":1898
                }, 
                {
                 "height":80,
                 "id":120,
                 "name":"spike",
                 "rotation":0,
                 "type":"",
                 "visible":true,
                 "width":80,
                 "x":5882,
                 "y":1898
                }, 
                {
                 "height":80,
                 "id":121,
                 "name":"spike",
                 "rotation":0,
                 "type":"",
                 "visible":true,
                 "width":80,
                 "x":5786,
                 "y":1900
                }, 
                {
                 "height":80,
                 "id":122,
                 "name":"spike",
                 "rotation":0,
                 "type":"",
                 "visible":true,
                 "width":80,
                 "x":5720,
                 "y":1910
                }, 
                {
                 "height":80,
                 "id":123,
                 "name":"spike",
                 "rotation":0,
                 "type":"",
                 "visible":true,
                 "width":80,
                 "x":5678,
                 "y":1910
                }, 
                {
                 "height":80,
                 "id":124,
                 "name":"spike",
                 "rotation":0,
                 "type":"",
                 "visible":true,
                 "width":80,
                 "x":5380,
                 "y":1900
                }, 
                {
                 "height":80,
                 "id":125,
                 "name":"spike",
                 "rotation":0,
                 "type":"",
                 "visible":true,
                 "width":80,
                 "x":5206,
                 "y":1166
                }, 
                {
                 "height":80,
                 "id":126,
                 "name":"spike",
                 "rotation":0,
                 "type":"",
                 "visible":true,
                 "width":80,
                 "x":7166,
                 "y":714
                }, 
                {
                 "height":80,
                 "id":127,
                 "name":"spike",
                 "rotation":0,
                 "type":"",
                 "visible":true,
                 "width":80,
                 "x":2404,
                 "y":1158
                }, 
                {
                 "height":80,
                 "id":128,
                 "name":"spike",
                 "rotation":0,
                 "type":"",
                 "visible":true,
                 "width":80,
                 "x":2876,
                 "y":1158
                }, 
                {
                 "height":80,
                 "id":129,
                 "name":"spike",
                 "rotation":0,
                 "type":"",
                 "visible":true,
                 "width":80,
                 "x":2638,
                 "y":1278
                }, 
                {
                 "height":80,
                 "id":130,
                 "name":"spike",
                 "rotation":0,
                 "type":"",
                 "visible":true,
                 "width":80,
                 "x":7252,
                 "y":714
                }, 
                {
                 "height":80,
                 "id":131,
                 "name":"spike",
                 "rotation":0,
                 "type":"",
                 "visible":true,
                 "width":80,
                 "x":7334,
                 "y":712
                }, 
                {
                 "height":80,
                 "id":133,
                 "name":"spike",
                 "rotation":0,
                 "type":"",
                 "visible":true,
                 "width":80,
                 "x":7596,
                 "y":1200
                }, 
                {
                 "height":80,
                 "id":134,
                 "name":"spike",
                 "rotation":0,
                 "type":"",
                 "visible":true,
                 "width":80,
                 "x":8156,
                 "y":1252
                }, 
                {
                 "height":80,
                 "id":135,
                 "name":"spike",
                 "rotation":0,
                 "type":"",
                 "visible":true,
                 "width":80,
                 "x":8000,
                 "y":1316
                }, 
                {
                 "height":80,
                 "id":136,
                 "name":"spike",
                 "rotation":0,
                 "type":"",
                 "visible":true,
                 "width":80,
                 "x":7836,
                 "y":1282
                }, 
                {
                 "height":80,
                 "id":137,
                 "name":"spike",
                 "rotation":0,
                 "type":"",
                 "visible":true,
                 "width":80,
                 "x":8402,
                 "y":1034
                }, 
                {
                 "height":80,
                 "id":138,
                 "name":"spike",
                 "rotation":0,
                 "type":"",
                 "visible":true,
                 "width":80,
                 "x":7688,
                 "y":1518
                }, 
                {
                 "height":80,
                 "id":140,
                 "name":"spike",
                 "rotation":0,
                 "type":"",
                 "visible":true,
                 "width":80,
                 "x":7402,
                 "y":1516
                }, 
                {
                 "height":80,
                 "id":141,
                 "name":"spike",
                 "rotation":0,
                 "type":"",
                 "visible":true,
                 "width":80,
                 "x":8344,
                 "y":1416
                }, 
                {
                 "height":80,
                 "id":142,
                 "name":"spike",
                 "rotation":0,
                 "type":"",
                 "visible":true,
                 "width":80,
                 "x":8702,
                 "y":1536
                }, 
                {
                 "height":80,
                 "id":143,
                 "name":"burger",
                 "rotation":0,
                 "type":"",
                 "visible":true,
                 "width":80,
                 "x":6512,
                 "y":694
                }, 
                {
                 "height":80,
                 "id":144,
                 "name":"burger",
                 "rotation":0,
                 "type":"",
                 "visible":true,
                 "width":80,
                 "x":6986,
                 "y":940
                }, 
                {
                 "height":80,
                 "id":145,
                 "name":"burger",
                 "rotation":0,
                 "type":"",
                 "visible":true,
                 "width":80,
                 "x":8506,
                 "y":1134
                }, 
                {
                 "height":80,
                 "id":146,
                 "name":"burger",
                 "rotation":0,
                 "type":"",
                 "visible":true,
                 "width":80,
                 "x":7400,
                 "y":442
                }, 
                {
                 "height":80,
                 "id":147,
                 "name":"burger",
                 "rotation":0,
                 "type":"",
                 "visible":true,
                 "width":80,
                 "x":6030,
                 "y":956
                }, 
                {
                 "height":80,
                 "id":149,
                 "name":"burger",
                 "rotation":0,
                 "type":"",
                 "visible":true,
                 "width":80,
                 "x":9504,
                 "y":1402
                }, 
                {
                 "height":80,
                 "id":151,
                 "name":"spring",
                 "rotation":0,
                 "type":"",
                 "visible":true,
                 "width":80,
                 "x":9482,
                 "y":1760
                }, 
                {
                 "height":80,
                 "id":152,
                 "name":"burger",
                 "rotation":0,
                 "type":"",
                 "visible":true,
                 "width":80,
                 "x":9380,
                 "y":1668
                }, 
                {
                 "height":80,
                 "id":153,
                 "name":"spike",
                 "rotation":0,
                 "type":"",
                 "visible":true,
                 "width":80,
                 "x":6478,
                 "y":1288
                }, 
                {
                 "height":80,
                 "id":155,
                 "name":"burger",
                 "rotation":0,
                 "type":"",
                 "visible":true,
                 "width":80,
                 "x":9796,
                 "y":1862
                }, 
                {
                 "height":80,
                 "id":156,
                 "name":"burger",
                 "rotation":0,
                 "type":"",
                 "visible":true,
                 "width":80,
                 "x":9794,
                 "y":1958
                }, 
                {
                 "height":80,
                 "id":157,
                 "name":"burger",
                 "rotation":0,
                 "type":"",
                 "visible":true,
                 "width":80,
                 "x":9792,
                 "y":2088
                }, 
                {
                 "height":80,
                 "id":158,
                 "name":"burger",
                 "rotation":0,
                 "type":"",
                 "visible":true,
                 "width":80,
                 "x":9798,
                 "y":2216
                }, 
                {
                 "height":80,
                 "id":159,
                 "name":"burger",
                 "rotation":0,
                 "type":"",
                 "visible":true,
                 "width":80,
                 "x":9710,
                 "y":2344
                }, 
                {
                 "height":80,
                 "id":160,
                 "name":"spike",
                 "rotation":0,
                 "type":"",
                 "visible":true,
                 "width":80,
                 "x":9894,
                 "y":1832
                }, 
                {
                 "height":80,
                 "id":161,
                 "name":"spike",
                 "rotation":0,
                 "type":"",
                 "visible":true,
                 "width":80,
                 "x":9882,
                 "y":1762
                }, 
                {
                 "height":80,
                 "id":162,
                 "name":"spike",
                 "rotation":0,
                 "type":"",
                 "visible":true,
                 "width":80,
                 "x":9866,
                 "y":1688
                }, 
                {
                 "height":80,
                 "id":163,
                 "name":"spike",
                 "rotation":0,
                 "type":"",
                 "visible":true,
                 "width":80,
                 "x":9846,
                 "y":1578
                }, 
                {
                 "height":80,
                 "id":164,
                 "name":"spike",
                 "rotation":0,
                 "type":"",
                 "visible":true,
                 "width":80,
                 "x":9802,
                 "y":1458
                }, 
                {
                 "height":80,
                 "id":165,
                 "name":"spike",
                 "rotation":0,
                 "type":"",
                 "visible":true,
                 "width":80,
                 "x":9764,
                 "y":1358
                }, 
                {
                 "height":80,
                 "id":166,
                 "name":"spike",
                 "rotation":0,
                 "type":"",
                 "visible":true,
                 "width":80,
                 "x":9738,
                 "y":1278
                }, 
                {
                 "height":80,
                 "id":167,
                 "name":"spike",
                 "rotation":0,
                 "type":"",
                 "visible":true,
                 "width":80,
                 "x":9718,
                 "y":1210
                }, 
                {
                 "height":80,
                 "id":168,
                 "name":"spike",
                 "rotation":0,
                 "type":"",
                 "visible":true,
                 "width":80,
                 "x":9678,
                 "y":1102
                }, 
                {
                 "height":80,
                 "id":169,
                 "name":"spring",
                 "rotation":0,
                 "type":"",
                 "visible":true,
                 "width":80,
                 "x":8300,
                 "y":2468
                }, 
                {
                 "height":80,
                 "id":170,
                 "name":"burger",
                 "rotation":0,
                 "type":"",
                 "visible":true,
                 "width":80,
                 "x":9336,
                 "y":1754
                }, 
                {
                 "height":80,
                 "id":171,
                 "name":"burger",
                 "rotation":0,
                 "type":"",
                 "visible":true,
                 "width":80,
                 "x":7392,
                 "y":2060
                }, 
                {
                 "height":80,
                 "id":173,
                 "name":"burger",
                 "rotation":0,
                 "type":"",
                 "visible":true,
                 "width":80,
                 "x":5626,
                 "y":2820
                }, 
                {
                 "height":80,
                 "id":174,
                 "name":"burger",
                 "rotation":0,
                 "type":"",
                 "visible":true,
                 "width":80,
                 "x":5706,
                 "y":2820
                }, 
                {
                 "height":80,
                 "id":175,
                 "name":"burger",
                 "rotation":0,
                 "type":"",
                 "visible":true,
                 "width":80,
                 "x":5894,
                 "y":2818
                }, 
                {
                 "height":80,
                 "id":176,
                 "name":"burger",
                 "rotation":0,
                 "type":"",
                 "visible":true,
                 "width":80,
                 "x":6042,
                 "y":2808
                }, 
                {
                 "height":80,
                 "id":177,
                 "name":"burger",
                 "rotation":0,
                 "type":"",
                 "visible":true,
                 "width":80,
                 "x":6320,
                 "y":2796
                }, 
                {
                 "height":80,
                 "id":178,
                 "name":"burger",
                 "rotation":0,
                 "type":"",
                 "visible":true,
                 "width":80,
                 "x":6528,
                 "y":2798
                }, 
                {
                 "height":80,
                 "id":179,
                 "name":"burger",
                 "rotation":0,
                 "type":"",
                 "visible":true,
                 "width":80,
                 "x":6554,
                 "y":2896
                }, 
                {
                 "height":80,
                 "id":180,
                 "name":"burger",
                 "rotation":0,
                 "type":"",
                 "visible":true,
                 "width":80,
                 "x":6096,
                 "y":2920
                }, 
                {
                 "height":80,
                 "id":181,
                 "name":"burger",
                 "rotation":0,
                 "type":"",
                 "visible":true,
                 "width":80,
                 "x":5746,
                 "y":2914
                }, 
                {
                 "height":80,
                 "id":182,
                 "name":"burger",
                 "rotation":0,
                 "type":"",
                 "visible":true,
                 "width":80,
                 "x":5588,
                 "y":2976
                }, 
                {
                 "height":80,
                 "id":183,
                 "name":"burger",
                 "rotation":0,
                 "type":"",
                 "visible":true,
                 "width":80,
                 "x":5940,
                 "y":3116
                }, 
                {
                 "height":80,
                 "id":184,
                 "name":"burger",
                 "rotation":0,
                 "type":"",
                 "visible":true,
                 "width":80,
                 "x":6218,
                 "y":3046
                }, 
                {
                 "height":80,
                 "id":185,
                 "name":"burger",
                 "rotation":0,
                 "type":"",
                 "visible":true,
                 "width":80,
                 "x":6452,
                 "y":3020
                }, 
                {
                 "height":80,
                 "id":186,
                 "name":"burger",
                 "rotation":0,
                 "type":"",
                 "visible":true,
                 "width":80,
                 "x":6334,
                 "y":3192
                }, 
                {
                 "height":80,
                 "id":187,
                 "name":"burger",
                 "rotation":0,
                 "type":"",
                 "visible":true,
                 "width":80,
                 "x":6010,
                 "y":3194
                }, 
                {
                 "height":80,
                 "id":188,
                 "name":"burger",
                 "rotation":0,
                 "type":"",
                 "visible":true,
                 "width":80,
                 "x":5588,
                 "y":3106
                }, 
                {
                 "height":80,
                 "id":189,
                 "name":"burger",
                 "rotation":0,
                 "type":"",
                 "visible":true,
                 "width":80,
                 "x":5892,
                 "y":2996
                }, 
                {
                 "height":80,
                 "id":190,
                 "name":"burger",
                 "rotation":0,
                 "type":"",
                 "visible":true,
                 "width":80,
                 "x":6048,
                 "y":2994
                }, 
                {
                 "height":80,
                 "id":191,
                 "name":"burger",
                 "rotation":0,
                 "type":"",
                 "visible":true,
                 "width":80,
                 "x":6184,
                 "y":3226
                }, 
                {
                 "height":80,
                 "id":192,
                 "name":"burger",
                 "rotation":0,
                 "type":"",
                 "visible":true,
                 "width":80,
                 "x":6594,
                 "y":3112
                }, 
                {
                 "height":80,
                 "id":193,
                 "name":"burger",
                 "rotation":0,
                 "type":"",
                 "visible":true,
                 "width":80,
                 "x":6680,
                 "y":3110
                }, 
                {
                 "height":80,
                 "id":194,
                 "name":"burger",
                 "rotation":0,
                 "type":"",
                 "visible":true,
                 "width":80,
                 "x":6184,
                 "y":3340
                }, 
                {
                 "height":80,
                 "id":195,
                 "name":"burger",
                 "rotation":0,
                 "type":"",
                 "visible":true,
                 "width":80,
                 "x":5714,
                 "y":3284
                }, 
                {
                 "height":80,
                 "id":196,
                 "name":"burger",
                 "rotation":0,
                 "type":"",
                 "visible":true,
                 "width":80,
                 "x":5638,
                 "y":3130
                }, 
                {
                 "height":80,
                 "id":197,
                 "name":"burger",
                 "rotation":0,
                 "type":"",
                 "visible":true,
                 "width":80,
                 "x":5960,
                 "y":3318
                }, 
                {
                 "height":80,
                 "id":198,
                 "name":"burger",
                 "rotation":0,
                 "type":"",
                 "visible":true,
                 "width":80,
                 "x":6324,
                 "y":3310
                }, 
                {
                 "height":80,
                 "id":199,
                 "name":"burger",
                 "rotation":0,
                 "type":"",
                 "visible":true,
                 "width":80,
                 "x":6562,
                 "y":3268
                }, 
                {
                 "height":80,
                 "id":200,
                 "name":"burger",
                 "rotation":0,
                 "type":"",
                 "visible":true,
                 "width":80,
                 "x":6356,
                 "y":3406
                }, 
                {
                 "height":80,
                 "id":201,
                 "name":"burger",
                 "rotation":0,
                 "type":"",
                 "visible":true,
                 "width":80,
                 "x":6036,
                 "y":3406
                }, 
                {
                 "height":80,
                 "id":202,
                 "name":"burger",
                 "rotation":0,
                 "type":"",
                 "visible":true,
                 "width":80,
                 "x":5952,
                 "y":3412
                }, 
                {
                 "height":80,
                 "id":203,
                 "name":"burger",
                 "rotation":0,
                 "type":"",
                 "visible":true,
                 "width":80,
                 "x":5768,
                 "y":3420
                }, 
                {
                 "height":80,
                 "id":204,
                 "name":"burger",
                 "rotation":0,
                 "type":"",
                 "visible":true,
                 "width":80,
                 "x":5770,
                 "y":3418
                }, 
                {
                 "height":80,
                 "id":205,
                 "name":"spring",
                 "rotation":0,
                 "type":"",
                 "visible":true,
                 "width":80,
                 "x":6738,
                 "y":3590
                }, 
                {
                 "height":80,
                 "id":206,
                 "name":"spring",
                 "rotation":0,
                 "type":"",
                 "visible":true,
                 "width":80,
                 "x":6538,
                 "y":3562
                }, 
                {
                 "height":80,
                 "id":207,
                 "name":"spring",
                 "rotation":0,
                 "type":"",
                 "visible":true,
                 "width":80,
                 "x":6388,
                 "y":3580
                }, 
                {
                 "height":80,
                 "id":208,
                 "name":"spring",
                 "rotation":0,
                 "type":"",
                 "visible":true,
                 "width":80,
                 "x":6096,
                 "y":3568
                }, 
                {
                 "height":80,
                 "id":209,
                 "name":"spring",
                 "rotation":0,
                 "type":"",
                 "visible":true,
                 "width":80,
                 "x":5876,
                 "y":3560
                }, 
                {
                 "height":80,
                 "id":210,
                 "name":"spring",
                 "rotation":0,
                 "type":"",
                 "visible":true,
                 "width":80,
                 "x":5614,
                 "y":3572
                }, 
                {
                 "height":80,
                 "id":211,
                 "name":"spring",
                 "rotation":0,
                 "type":"",
                 "visible":true,
                 "width":80,
                 "x":6218,
                 "y":3600
                }, 
                {
                 "height":80,
                 "id":212,
                 "name":"spring",
                 "rotation":0,
                 "type":"",
                 "visible":true,
                 "width":80,
                 "x":5838,
                 "y":3172
                }, 
                {
                 "height":80,
                 "id":213,
                 "name":"spring",
                 "rotation":0,
                 "type":"",
                 "visible":true,
                 "width":80,
                 "x":6042,
                 "y":3152
                }, 
                {
                 "height":80,
                 "id":214,
                 "name":"spring",
                 "rotation":0,
                 "type":"",
                 "visible":true,
                 "width":80,
                 "x":6240,
                 "y":3126
                }, 
                {
                 "height":80,
                 "id":215,
                 "name":"spring",
                 "rotation":0,
                 "type":"",
                 "visible":true,
                 "width":80,
                 "x":6496,
                 "y":3136
                }, 
                {
                 "height":80,
                 "id":216,
                 "name":"spring",
                 "rotation":0,
                 "type":"",
                 "visible":true,
                 "width":80,
                 "x":6672,
                 "y":3190
                }, 
                {
                 "height":80,
                 "id":217,
                 "name":"spring",
                 "rotation":0,
                 "type":"",
                 "visible":true,
                 "width":80,
                 "x":6342,
                 "y":3298
                }, 
                {
                 "height":80,
                 "id":218,
                 "name":"spring",
                 "rotation":0,
                 "type":"",
                 "visible":true,
                 "width":80,
                 "x":5740,
                 "y":3318
                }, 
                {
                 "height":80,
                 "id":219,
                 "name":"spring",
                 "rotation":0,
                 "type":"",
                 "visible":true,
                 "width":80,
                 "x":5808,
                 "y":2868
                }, 
                {
                 "height":80,
                 "id":220,
                 "name":"spike",
                 "rotation":0,
                 "type":"",
                 "visible":true,
                 "width":80,
                 "x":9896,
                 "y":1942
                }, 
                {
                 "height":80,
                 "id":221,
                 "name":"spike",
                 "rotation":0,
                 "type":"",
                 "visible":true,
                 "width":80,
                 "x":9898,
                 "y":2024
                }, 
                {
                 "height":80,
                 "id":222,
                 "name":"spike",
                 "rotation":0,
                 "type":"",
                 "visible":true,
                 "width":80,
                 "x":9896,
                 "y":2100
                }, 
                {
                 "height":80,
                 "id":223,
                 "name":"spike",
                 "rotation":0,
                 "type":"",
                 "visible":true,
                 "width":80,
                 "x":9888,
                 "y":2198
                }, 
                {
                 "height":80,
                 "id":224,
                 "name":"spike",
                 "rotation":0,
                 "type":"",
                 "visible":true,
                 "width":80,
                 "x":9898,
                 "y":2300
                }, 
                {
                 "height":80,
                 "id":225,
                 "name":"spike",
                 "rotation":0,
                 "type":"",
                 "visible":true,
                 "width":80,
                 "x":9914,
                 "y":2388
                }, 
                {
                 "height":80,
                 "id":226,
                 "name":"burger",
                 "rotation":0,
                 "type":"",
                 "visible":true,
                 "width":80,
                 "x":8932,
                 "y":1734
                }, 
                {
                 "height":80,
                 "id":227,
                 "name":"burger",
                 "rotation":0,
                 "type":"",
                 "visible":true,
                 "width":80,
                 "x":8268,
                 "y":1930
                }, 
                {
                 "height":80,
                 "id":228,
                 "name":"burger",
                 "rotation":0,
                 "type":"",
                 "visible":true,
                 "width":80,
                 "x":7716,
                 "y":1700
                }, 
                {
                 "height":80,
                 "id":229,
                 "name":"spike",
                 "rotation":0,
                 "type":"",
                 "visible":true,
                 "width":80,
                 "x":6836,
                 "y":2764
                }, 
                {
                 "height":80,
                 "id":230,
                 "name":"spike",
                 "rotation":0,
                 "type":"",
                 "visible":true,
                 "width":80,
                 "x":6850,
                 "y":2862
                }, 
                {
                 "height":80,
                 "id":231,
                 "name":"spike",
                 "rotation":0,
                 "type":"",
                 "visible":true,
                 "width":80,
                 "x":6860,
                 "y":2940
                }, 
                {
                 "height":80,
                 "id":232,
                 "name":"spike",
                 "rotation":0,
                 "type":"",
                 "visible":true,
                 "width":80,
                 "x":6878,
                 "y":3074
                }, 
                {
                 "height":80,
                 "id":233,
                 "name":"spike",
                 "rotation":0,
                 "type":"",
                 "visible":true,
                 "width":80,
                 "x":6886,
                 "y":3186
                }, 
                {
                 "height":80,
                 "id":234,
                 "name":"spike",
                 "rotation":0,
                 "type":"",
                 "visible":true,
                 "width":80,
                 "x":6874,
                 "y":3296
                }, 
                {
                 "height":80,
                 "id":235,
                 "name":"spike",
                 "rotation":0,
                 "type":"",
                 "visible":true,
                 "width":80,
                 "x":6872,
                 "y":3414
                }, 
                {
                 "height":80,
                 "id":236,
                 "name":"spike",
                 "rotation":0,
                 "type":"",
                 "visible":true,
                 "width":80,
                 "x":6882,
                 "y":3484
                }, 
                {
                 "height":80,
                 "id":238,
                 "name":"spike",
                 "rotation":0,
                 "type":"",
                 "visible":true,
                 "width":80,
                 "x":5438,
                 "y":2840
                }, 
                {
                 "height":80,
                 "id":239,
                 "name":"spike",
                 "rotation":0,
                 "type":"",
                 "visible":true,
                 "width":80,
                 "x":5426,
                 "y":2978
                }, 
                {
                 "height":80,
                 "id":240,
                 "name":"spike",
                 "rotation":0,
                 "type":"",
                 "visible":true,
                 "width":80,
                 "x":5422,
                 "y":3074
                }, 
                {
                 "height":80,
                 "id":241,
                 "name":"spike",
                 "rotation":0,
                 "type":"",
                 "visible":true,
                 "width":80,
                 "x":5438,
                 "y":3216
                }, 
                {
                 "height":80,
                 "id":242,
                 "name":"spike",
                 "rotation":0,
                 "type":"",
                 "visible":true,
                 "width":80,
                 "x":5410,
                 "y":3324
                }, 
                {
                 "height":80,
                 "id":243,
                 "name":"spike",
                 "rotation":0,
                 "type":"",
                 "visible":true,
                 "width":80,
                 "x":5408,
                 "y":3446
                }],
         "opacity":1,
         "type":"objectgroup",
         "visible":true,
         "x":0,
         "y":0
        }],
 "nextlayerid":3,
 "nextobjectid":244,
 "orientation":"orthogonal",
 "renderorder":"right-down",
 "tiledversion":"1.6.0",
 "tileheight":80,
 "tilesets":[
        {
         "columns":4,
         "firstgid":1,
         "image":"patformkenney-80-4x39.png",
         "imageheight":3120,
         "imagewidth":320,
         "margin":0,
         "name":"patformkenney-80-4x39",
         "spacing":0,
         "tilecount":156,
         "tileheight":80,
         "tiles":[
                {
                 "id":152,
                 "properties":[
                        {
                         "name":"collides",
                         "type":"bool",
                         "value":true
                        }, 
                        {
                         "name":"ground",
                         "type":"bool",
                         "value":true
                        }]
                }],
         "tilewidth":80
        }],
 "tilewidth":80,
 "type":"map",
 "version":"1.6",
 "width":1000
}